{
  "users": {
    "USERID1": {
      "name": "insan",
      "email": "insan@mail.com",
      "online": true
    },
    "USERID2": {
      "name": "joko",
      "email": "joko@mail.com",
      "online": false
    }
  },
  "chats": {
    "USERID1": {
      "USERID2": {
        "MESSAGEID1": {
          "text": "hi",
          "from": "then"
        },
        "MESSAGEID2": {
          "text": "hi juga",
          "from": "me"
        }
      }
    },
    "USERID2": {
      "USERID1": {
        "MESSAGEID1": {
          "text": "hi",
          "from": "me"
        },
        "MESSAGEID2": {
          "text": "hi juga",
          "from": "than"
        }
      }
    }
  }
}
